testbenches/adpll_test2.vcd
$date
	Sun Jan 12 00:53:38 2025
$end
$version
	Icarus Verilog
$end
$timescale
	1ps
$end
$scope module adpll_test2 $end
$var wire 5 ! value [4:0] $end
$var wire 1 " sign $end
$var wire 1 # nco_out $end
$var wire 1 $ fb_clk $end
$var wire 5 % dout [4:0] $end
$var reg 1 & clk $end
$var reg 1 ' clk_ref $end
$var reg 1 ( clr $end
$var reg 1 ) out_sel $end
$var reg 3 * param_sel [2:0] $end
$var reg 5 + pgm_value [4:0] $end
$var reg 1 , program $end
$var reg 1 - rst $end
$var real 1 . delay $end
$scope module u0 $end
$var wire 1 & clk $end
$var wire 1 ' clk_ref $end
$var wire 1 ( clr $end
$var wire 1 ) out_sel $end
$var wire 3 / param_sel [2:0] $end
$var wire 5 0 pgm_value [4:0] $end
$var wire 1 , program $end
$var wire 1 - rst $end
$var wire 1 " sign $end
$var wire 1 1 ndiv_ld $end
$var wire 1 2 nco_thresh_en $end
$var wire 1 # nco_out $end
$var wire 1 3 nco_offset_en $end
$var wire 1 4 knco_en $end
$var wire 1 5 integ_sign $end
$var wire 5 6 integ_out [4:0] $end
$var wire 1 7 filter_sign $end
$var wire 5 8 filter_out [4:0] $end
$var wire 1 $ fb_clk $end
$var wire 5 9 dout [4:0] $end
$var wire 1 : beta_en $end
$var wire 1 ; alpha_en $end
$var reg 5 < alpha_var_buf [4:0] $end
$var reg 5 = beta_var_buf [4:0] $end
$var reg 5 > knco_buf [4:0] $end
$var reg 5 ? nco_offset_buf [4:0] $end
$var reg 5 @ nco_thresh_buf [4:0] $end
$var reg 4 A ndiv [3:0] $end
$scope module u0 $end
$var wire 5 B alpha_var [4:0] $end
$var wire 5 C beta_var [4:0] $end
$var wire 1 & clk $end
$var wire 1 ' clk_ref $end
$var wire 5 D cntrl [4:0] $end
$var wire 5 E knco [4:0] $end
$var wire 5 F nco_offset [4:0] $end
$var wire 5 G nco_thresh_val [4:0] $end
$var wire 4 H ndiv [3:0] $end
$var wire 1 - reset $end
$var wire 32 I up_error [31:0] $end
$var wire 1 # nco_out $end
$var wire 1 5 integ_sign $end
$var wire 5 J integ_out [4:0] $end
$var wire 1 K freq_div_buf $end
$var wire 1 $ freq_div $end
$var wire 1 7 filter_sign $end
$var wire 5 L filter_out [4:0] $end
$var wire 1 M error_sign $end
$var wire 32 N dwn_error [31:0] $end
$var wire 5 O bin_up_error [4:0] $end
$var wire 5 P bin_error [4:0] $end
$var wire 5 Q bin_dwn_error [4:0] $end
$scope module i0_tdc $end
$var wire 1 & clk $end
$var wire 1 ' clk_ref $end
$var wire 1 $ freq_div $end
$var wire 1 - reset $end
$var wire 1 R reset_trig $end
$var reg 1 S dwn $end
$var reg 32 T dwn_error [31:0] $end
$var reg 1 U up $end
$var reg 32 V up_error [31:0] $end
$upscope $end
$scope module i1_oc $end
$var wire 32 W data_in [31:0] $end
$var wire 5 X data_out [4:0] $end
$var wire 5 Y d9 [4:0] $end
$var wire 5 Z d8 [4:0] $end
$var wire 5 [ d7 [4:0] $end
$var wire 5 \ d6 [4:0] $end
$var wire 5 ] d5 [4:0] $end
$var wire 5 ^ d4 [4:0] $end
$var wire 5 _ d31 [4:0] $end
$var wire 5 ` d30 [4:0] $end
$var wire 5 a d3 [4:0] $end
$var wire 5 b d29 [4:0] $end
$var wire 5 c d28 [4:0] $end
$var wire 5 d d27 [4:0] $end
$var wire 5 e d26 [4:0] $end
$var wire 5 f d25 [4:0] $end
$var wire 5 g d24 [4:0] $end
$var wire 5 h d23 [4:0] $end
$var wire 5 i d22 [4:0] $end
$var wire 5 j d21 [4:0] $end
$var wire 5 k d20 [4:0] $end
$var wire 5 l d2 [4:0] $end
$var wire 5 m d19 [4:0] $end
$var wire 5 n d18 [4:0] $end
$var wire 5 o d17 [4:0] $end
$var wire 5 p d16 [4:0] $end
$var wire 5 q d15 [4:0] $end
$var wire 5 r d14 [4:0] $end
$var wire 5 s d13 [4:0] $end
$var wire 5 t d12 [4:0] $end
$var wire 5 u d11 [4:0] $end
$var wire 5 v d10 [4:0] $end
$var wire 5 w d1 [4:0] $end
$var wire 5 x d0 [4:0] $end
$upscope $end
$scope module i2_oc $end
$var wire 32 y data_in [31:0] $end
$var wire 5 z data_out [4:0] $end
$var wire 5 { d9 [4:0] $end
$var wire 5 | d8 [4:0] $end
$var wire 5 } d7 [4:0] $end
$var wire 5 ~ d6 [4:0] $end
$var wire 5 !" d5 [4:0] $end
$var wire 5 "" d4 [4:0] $end
$var wire 5 #" d31 [4:0] $end
$var wire 5 $" d30 [4:0] $end
$var wire 5 %" d3 [4:0] $end
$var wire 5 &" d29 [4:0] $end
$var wire 5 '" d28 [4:0] $end
$var wire 5 (" d27 [4:0] $end
$var wire 5 )" d26 [4:0] $end
$var wire 5 *" d25 [4:0] $end
$var wire 5 +" d24 [4:0] $end
$var wire 5 ," d23 [4:0] $end
$var wire 5 -" d22 [4:0] $end
$var wire 5 ." d21 [4:0] $end
$var wire 5 /" d20 [4:0] $end
$var wire 5 0" d2 [4:0] $end
$var wire 5 1" d19 [4:0] $end
$var wire 5 2" d18 [4:0] $end
$var wire 5 3" d17 [4:0] $end
$var wire 5 4" d16 [4:0] $end
$var wire 5 5" d15 [4:0] $end
$var wire 5 6" d14 [4:0] $end
$var wire 5 7" d13 [4:0] $end
$var wire 5 8" d12 [4:0] $end
$var wire 5 9" d11 [4:0] $end
$var wire 5 :" d10 [4:0] $end
$var wire 5 ;" d1 [4:0] $end
$var wire 5 <" d0 [4:0] $end
$upscope $end
$scope module i3_pi_filter $end
$var wire 5 =" alpha_var [4:0] $end
$var wire 5 >" beta_var [4:0] $end
$var wire 1 ' clk $end
$var wire 5 ?" error [4:0] $end
$var wire 1 M error_sign $end
$var wire 1 - reset $end
$var wire 5 @" prop_var [4:0] $end
$var wire 5 A" integ_var [4:0] $end
$var wire 1 5 integ_sign $end
$var wire 5 B" integ_out [4:0] $end
$var wire 1 7 filter_sign $end
$var wire 5 C" filter_out [4:0] $end
$var reg 5 D" integ_store [4:0] $end
$var reg 1 E" integ_store_sign $end
$scope module acs0 $end
$var wire 5 F" in1 [4:0] $end
$var wire 5 G" in2 [4:0] $end
$var wire 1 M sign_in1 $end
$var wire 1 E" sign_in2 $end
$var wire 5 H" sum [4:0] $end
$var wire 1 5 sign_out $end
$var wire 5 I" sbuf [4:0] $end
$var wire 5 J" in2_buf [4:0] $end
$var wire 5 K" in1_buf [4:0] $end
$upscope $end
$scope module acs1 $end
$var wire 5 L" in1 [4:0] $end
$var wire 5 M" in2 [4:0] $end
$var wire 1 M sign_in1 $end
$var wire 1 5 sign_in2 $end
$var wire 5 N" sum [4:0] $end
$var wire 1 7 sign_out $end
$var wire 5 O" sbuf [4:0] $end
$var wire 5 P" in2_buf [4:0] $end
$var wire 5 Q" in1_buf [4:0] $end
$upscope $end
$upscope $end
$scope module i4_nco $end
$var wire 1 & clk $end
$var wire 5 R" ctrl [4:0] $end
$var wire 1 7 ctrl_sign $end
$var wire 5 S" knco [4:0] $end
$var wire 5 T" nco_offset [4:0] $end
$var wire 1 - reset $end
$var wire 5 U" thresh_val [4:0] $end
$var wire 5 V" thresh_buf [4:0] $end
$var wire 5 W" phase [4:0] $end
$var wire 1 X" ctrl_sign_buf $end
$var wire 5 Y" ctrl_buf [4:0] $end
$var reg 32 Z" counter [31:0] $end
$var reg 1 # nco_clk $end
$var reg 5 [" thresh [4:0] $end
$upscope $end
$scope module i5_freq_div $end
$var wire 1 # clk $end
$var wire 4 \" ndiv [3:0] $end
$var wire 1 - reset $end
$var wire 4 ]" thresh [3:0] $end
$var reg 32 ^" counter [31:0] $end
$var reg 1 K freq_div_out $end
$upscope $end
$upscope $end
$upscope $end
$upscope $end
$enddefinitions $end
#0
$dumpvars
b0 ^"
b0 ]"
b0 \"
bx ["
b0 Z"
b0 Y"
0X"
b0 W"
b0 V"
b0 U"
b0 T"
b0 S"
b0 R"
b0 Q"
b0 P"
b0 O"
b0 N"
b0 M"
b0 L"
b0 K"
b0 J"
b0 I"
b0 H"
b0 G"
b0 F"
0E"
b0 D"
b0 C"
b0 B"
b0 A"
b0 @"
b0 ?"
b0 >"
b0 ="
b0 <"
b0 ;"
b0 :"
b0 9"
b0 8"
b0 7"
b0 6"
b0 5"
b0 4"
b0 3"
b0 2"
b0 1"
b0 0"
b0 /"
b0 ."
b0 -"
b0 ,"
b0 +"
b0 *"
b0 )"
b0 ("
b0 '"
b0 &"
b0 %"
b0 $"
b0 #"
b0 ""
b0 !"
b0 ~
b0 }
b0 |
b0 {
b0 z
b0 y
b0 x
b0 w
b0 v
b0 u
b0 t
b0 s
b0 r
b0 q
b0 p
b0 o
b0 n
b0 m
b0 l
b0 k
b0 j
b0 i
b0 h
b0 g
b0 f
b0 e
b0 d
b0 c
b0 b
b0 a
b0 `
b0 _
b0 ^
b0 ]
b0 \
b0 [
b0 Z
b0 Y
b0 X
b0 W
b0 V
0U
b0 T
0S
1R
b0 Q
b0 P
b0 O
b0 N
0M
b0 L
0K
b0 J
b0 I
b0 H
b0 G
b0 F
b0 E
b0 D
b0 C
b0 B
b0 A
b0 @
b0 ?
b0 >
b0 =
b0 <
x;
x:
b0 9
b0 8
07
b0 6
05
x4
x3
x2
x1
bx 0
bx /
r250 .
1-
x,
bx +
bx *
0)
1(
1'
1&
b0 %
0$
0#
0"
bx !
$end
#10000
0&
#12000
b1 ]"
b1 A
b1 H
b1 \"
11
0;
0:
03
02
04
b1 !
b1 0
b1 +
b0 *
b0 /
1,
0(
#13000
b100 <
b100 B
b100 ="
01
1;
b100 !
b100 0
b100 +
b1 *
b1 /
#14000
b100 =
b100 C
b100 >"
0;
1:
b10 *
b10 /
#15000
b1000 V"
b1000 ?
b1000 F
b1000 T"
0:
13
b1000 !
b1000 0
b1000 +
b11 *
b11 /
#16000
b10010 V"
b1010 @
b1010 G
b1010 U"
03
12
b1010 !
b1010 0
b1010 +
b100 *
b100 /
#17000
b1 >
b1 E
b1 S"
b1000 Z"
b1000 ["
02
14
0R
0-
b1 !
b1 0
b1 +
b101 *
b101 /
#20000
1S
1$
1K
1#
b10010 ["
1&
#30000
0&
#40000
b10000 V"
1"
b10 W"
b10 Y"
b10 %
b10 9
b11111 P"
17
15
b10 D
b10 R"
b10 8
b10 L
b10 C"
b10 N"
b1 6
b1 J
b1 B"
b1 H"
b1 M"
1M
b11110 O"
b11111 I"
b11111 Q"
b11111 K"
b1 @"
b1 L"
b1 A"
b1 F"
b11111 P
b11111 ?"
b1 Q
b1 z
b1 <"
b1 N
b1 T
b1 y
b1001 Z"
1&
#50000
0&
#60000
b11110 P
b11110 ?"
b10 Q
b10 z
b1 ;"
b11 N
b11 T
b11 y
b1010 Z"
b10000 ["
1&
#70000
0&
#80000
b11101 P
b11101 ?"
b11 Q
b11 z
b1 0"
b111 N
b111 T
b111 y
b1011 Z"
1&
#90000
0&
#100000
b11100 P
b11100 ?"
b100 Q
b100 z
b1 %"
b1111 N
b1111 T
b1111 y
b1100 Z"
1&
#110000
0&
#120000
b11011 P
b11011 ?"
b101 Q
b101 z
b1 ""
b11111 N
b11111 T
b11111 y
b1101 Z"
1&
#130000
0&
#140000
b11010 P
b11010 ?"
b110 Q
b110 z
b1 !"
b111111 N
b111111 T
b111111 y
b1110 Z"
1&
#150000
0&
#160000
b11001 P
b11001 ?"
b111 Q
b111 z
b1 ~
b1111111 N
b1111111 T
b1111111 y
b1111 Z"
1&
#170000
0&
#180000
b11000 P
b11000 ?"
b1000 Q
b1000 z
b1 }
b11111111 N
b11111111 T
b11111111 y
b1000 Z"
0#
1&
#190000
0&
#200000
b10111 P
b10111 ?"
b1001 Q
b1001 z
b1 |
b111111111 N
b111111111 T
b111111111 y
b1001 Z"
1&
#210000
0&
#220000
b10110 P
b10110 ?"
b1010 Q
b1010 z
b1 {
b1111111111 N
b1111111111 T
b1111111111 y
b1010 Z"
1&
#230000
0&
#240000
b10101 P
b10101 ?"
b1011 Q
b1011 z
b1 :"
b11111111111 N
b11111111111 T
b11111111111 y
b1011 Z"
1&
#250000
0&
0'
#260000
b10100 P
b10100 ?"
b1100 Q
b1100 z
b1 9"
b111111111111 N
b111111111111 T
b111111111111 y
b1100 Z"
1&
#270000
0&
#280000
b10011 P
b10011 ?"
b1101 Q
b1101 z
b1 8"
b1111111111111 N
b1111111111111 T
b1111111111111 y
b1101 Z"
1&
#290000
0&
#300000
b10010 P
b10010 ?"
b1110 Q
b1110 z
b1 7"
b11111111111111 N
b11111111111111 T
b11111111111111 y
b1110 Z"
1&
#310000
0&
#320000
b10001 P
b10001 ?"
b1111 Q
b1111 z
b1 6"
b111111111111111 N
b111111111111111 T
b111111111111111 y
b1111 Z"
1&
#330000
0&
#340000
0$
0K
b10000 P
b10000 ?"
b10000 Q
b10000 z
b1 5"
b1111111111111111 N
b1111111111111111 T
b1111111111111111 y
b1000 Z"
1#
1&
#350000
0&
#360000
b10010 V"
b0 W"
b0 Y"
b0 %
b0 9
0"
b0 I"
b0 O"
b0 D
b0 R"
b0 8
b0 L
b0 C"
b0 N"
b0 Q"
b0 K"
b0 6
b0 J
b0 B"
b0 H"
b0 M"
b0 P"
07
05
b0 @"
b0 L"
b0 A"
b0 F"
b1111 P
b1111 ?"
b10001 Q
b10001 z
b1 4"
b11111111111111111 N
b11111111111111111 T
b11111111111111111 y
b1001 Z"
1&
#370000
0&
#380000
b1110 P
b1110 ?"
b10010 Q
b10010 z
b1 3"
b111111111111111111 N
b111111111111111111 T
b111111111111111111 y
b1010 Z"
b10010 ["
1&
#390000
0&
#400000
b1101 P
b1101 ?"
b10011 Q
b10011 z
b1 2"
b1111111111111111111 N
b1111111111111111111 T
b1111111111111111111 y
b1011 Z"
1&
#410000
0&
#420000
b1100 P
b1100 ?"
b10100 Q
b10100 z
b1 1"
b11111111111111111111 N
b11111111111111111111 T
b11111111111111111111 y
b1100 Z"
1&
#430000
0&
#440000
b1011 P
b1011 ?"
b10101 Q
b10101 z
b1 /"
b111111111111111111111 N
b111111111111111111111 T
b111111111111111111111 y
b1101 Z"
1&
#450000
0&
#460000
b1010 P
b1010 ?"
b10110 Q
b10110 z
b1 ."
b1111111111111111111111 N
b1111111111111111111111 T
b1111111111111111111111 y
b1110 Z"
1&
#470000
0&
#480000
b1001 P
b1001 ?"
b10111 Q
b10111 z
b1 -"
b11111111111111111111111 N
b11111111111111111111111 T
b11111111111111111111111 y
b1111 Z"
1&
#490000
0&
#500000
0M
b0 <"
b0 ;"
b0 0"
b0 %"
b0 ""
b0 !"
b0 ~
b0 }
b0 |
b0 {
b0 :"
b0 9"
b0 8"
b0 7"
b0 6"
b0 5"
b0 @"
b0 L"
b0 A"
b0 F"
b0 4"
b0 3"
b0 2"
b0 1"
b0 /"
b0 ."
b0 -"
0S
0R
b0 P
b0 ?"
b0 Q
b0 z
b0 ,"
b0 N
b0 T
b0 y
b10000 Z"
0U
1&
1'
#510000
0&
#520000
b10001 Z"
1&
#530000
0&
#540000
b1000 Z"
0#
1&
#550000
0&
#560000
b1001 Z"
1&
#570000
0&
#580000
b1010 Z"
1&
#590000
0&
#600000
b1011 Z"
1&
#610000
0&
#620000
b1100 Z"
1&
#630000
0&
#640000
b1101 Z"
1&
#650000
0&
#660000
b1110 Z"
1&
#670000
0&
#680000
b1111 Z"
1&
#690000
0&
#700000
b10000 Z"
1&
#710000
0&
#720000
b10001 Z"
1&
#730000
0&
#740000
1S
1$
1K
b1000 Z"
1#
1&
#750000
0&
0'
#760000
b10000 V"
1"
b10 W"
b10 Y"
b10 %
b10 9
b11111 P"
17
15
b10 D
b10 R"
b10 8
b10 L
b10 C"
b10 N"
b1 6
b1 J
b1 B"
b1 H"
b1 M"
1M
b11110 O"
b11111 I"
b11111 Q"
b11111 K"
b1 @"
b1 L"
b1 A"
b1 F"
b11111 P
b11111 ?"
b1 Q
b1 z
b1 <"
b1 N
b1 T
b1 y
b1001 Z"
1&
#770000
0&
#780000
b11110 P
b11110 ?"
b10 Q
b10 z
b1 ;"
b11 N
b11 T
b11 y
b1010 Z"
b10000 ["
1&
#790000
0&
#800000
b11101 P
b11101 ?"
b11 Q
b11 z
b1 0"
b111 N
b111 T
b111 y
b1011 Z"
1&
#810000
0&
#820000
b11100 P
b11100 ?"
b100 Q
b100 z
b1 %"
b1111 N
b1111 T
b1111 y
b1100 Z"
1&
#830000
0&
#840000
b11011 P
b11011 ?"
b101 Q
b101 z
b1 ""
b11111 N
b11111 T
b11111 y
b1101 Z"
1&
#850000
0&
#860000
b11010 P
b11010 ?"
b110 Q
b110 z
b1 !"
b111111 N
b111111 T
b111111 y
b1110 Z"
1&
#870000
0&
#880000
b11001 P
b11001 ?"
b111 Q
b111 z
b1 ~
b1111111 N
b1111111 T
b1111111 y
b1111 Z"
1&
#890000
0&
#900000
b11000 P
b11000 ?"
b1000 Q
b1000 z
b1 }
b11111111 N
b11111111 T
b11111111 y
b1000 Z"
0#
1&
#910000
0&
#920000
b10111 P
b10111 ?"
b1001 Q
b1001 z
b1 |
b111111111 N
b111111111 T
b111111111 y
b1001 Z"
1&
#930000
0&
#940000
b10110 P
b10110 ?"
b1010 Q
b1010 z
b1 {
b1111111111 N
b1111111111 T
b1111111111 y
b1010 Z"
1&
#950000
0&
#960000
b10101 P
b10101 ?"
b1011 Q
b1011 z
b1 :"
b11111111111 N
b11111111111 T
b11111111111 y
b1011 Z"
1&
#970000
0&
#980000
b10100 P
b10100 ?"
b1100 Q
b1100 z
b1 9"
b111111111111 N
b111111111111 T
b111111111111 y
b1100 Z"
1&
#990000
0&
#1000000
0M
b0 Q"
b0 K"
b0 @"
b0 L"
b0 A"
b0 F"
b0 <"
b0 ;"
b0 0"
b0 %"
b0 ""
b0 !"
b0 ~
b0 }
b0 |
b0 {
b0 :"
b0 9"
0S
b10001 V"
b1 W"
b1 Y"
b1 %
b1 9
b1 D
b1 R"
b1 8
b1 L
b1 C"
b1 N"
b11111 O"
b11111 P"
b1 6
b1 J
b1 B"
b1 H"
b1 M"
b11111 I"
0R
b11111 J"
b0 P
b0 ?"
b0 Q
b0 z
b0 8"
b0 N
b0 T
b0 y
b1101 Z"
0U
1E"
b1 D"
b1 G"
1&
1'
#1010000
0&
#1020000
b1110 Z"
b10001 ["
1&
#1030000
0&
#1040000
b1111 Z"
1&
#1050000
0&
#1060000
b10000 Z"
1&
#1070000
0&
#1080000
0$
0K
b1000 Z"
1#
1&
#1090000
0&
#1100000
b1001 Z"
1&
#1110000
0&
#1120000
b1010 Z"
1&
#1130000
0&
#1140000
b1011 Z"
1&
#1150000
0&
#1160000
b1100 Z"
1&
#1170000
0&
#1180000
b1101 Z"
1&
#1190000
0&
#1200000
b1110 Z"
1&
#1210000
0&
#1220000
b1111 Z"
1&
#1230000
0&
#1240000
b10000 Z"
1&
#1250000
0&
0'
#1260000
b1000 Z"
0#
1&
#1270000
0&
#1280000
b1001 Z"
1&
#1290000
0&
#1300000
b1010 Z"
1&
#1310000
0&
#1320000
b1011 Z"
1&
#1330000
0&
#1340000
b1100 Z"
1&
#1350000
0&
#1360000
b1101 Z"
1&
#1370000
0&
#1380000
b1110 Z"
1&
#1390000
0&
#1400000
b1111 Z"
1&
#1410000
0&
#1420000
b10000 Z"
1&
#1430000
0&
#1440000
1S
1$
1K
b1000 Z"
1#
1&
#1450000
0&
#1460000
b1111 V"
b11 W"
b11 Y"
b11 %
b11 9
b11110 P"
b11 D
b11 R"
b11 8
b11 L
b11 C"
b11 N"
b10 6
b10 J
b10 B"
b10 H"
b10 M"
1M
b11101 O"
b11110 I"
b11111 Q"
b11111 K"
b1 @"
b1 L"
b1 A"
b1 F"
b11111 P
b11111 ?"
b1 Q
b1 z
b1 <"
b1 N
b1 T
b1 y
b1001 Z"
1&
#1470000
0&
#1480000
b11110 P
b11110 ?"
b10 Q
b10 z
b1 ;"
b11 N
b11 T
b11 y
b1010 Z"
b1111 ["
1&
#1490000
0&
#1500000
0M
b0 Q"
b0 K"
b0 @"
b0 L"
b0 A"
b0 F"
b0 <"
b0 ;"
0S
b10000 V"
b10 W"
b10 Y"
b10 %
b10 9
b10 D
b10 R"
b10 8
b10 L
b10 C"
b10 N"
b11110 O"
b11110 P"
b10 6
b10 J
b10 B"
b10 H"
b10 M"
b11110 I"
0R
b11110 J"
b0 P
b0 ?"
b0 Q
b0 z
b0 0"
b0 N
b0 T
b0 y
b1011 Z"
0U
b10 D"
b10 G"
1&
1'
#1510000
0&
#1520000
b1100 Z"
b10000 ["
1&
#1530000
0&
#1540000
b1101 Z"
1&
#1550000
0&
#1560000
b1110 Z"
1&
#1570000
0&
#1580000
b1111 Z"
1&
#1590000
0&
#1600000
b1000 Z"
0#
1&
#1610000
0&
#1620000
b1001 Z"
1&
#1630000
0&
#1640000
b1010 Z"
1&
#1650000
0&
#1660000
b1011 Z"
1&
#1670000
0&
#1680000
b1100 Z"
1&
#1690000
0&
#1700000
b1101 Z"
1&
#1710000
0&
#1720000
b1110 Z"
1&
#1730000
0&
#1740000
b1111 Z"
1&
#1750000
0&
0'
#1760000
0$
0K
b1000 Z"
1#
1&
#1770000
0&
#1780000
b1001 Z"
1&
#1790000
0&
#1800000
b1010 Z"
1&
#1810000
0&
#1820000
b1011 Z"
1&
#1830000
0&
#1840000
b1100 Z"
1&
#1850000
0&
#1860000
b1101 Z"
1&
#1870000
0&
#1880000
b1110 Z"
1&
#1890000
0&
#1900000
b1111 Z"
1&
#1910000
0&
#1920000
b1000 Z"
0#
1&
#1930000
0&
#1940000
b1001 Z"
1&
#1950000
0&
#1960000
b1010 Z"
1&
#1970000
0&
#1980000
b1011 Z"
1&
#1990000
0&
#2000000
b1100 Z"
1U
1&
1'
#2010000
0&
#2020000
b1 P
b1 ?"
b1 O
b1 X
b1 x
b1 I
b1 V
b1 W
b1101 Z"
1&
#2030000
0&
#2040000
b10 P
b10 ?"
b10 O
b10 X
b1 w
b11 I
b11 V
b11 W
b1110 Z"
1&
#2050000
0&
#2060000
b11 P
b11 ?"
b11 O
b11 X
b1 l
b111 I
b111 V
b111 W
b1111 Z"
1&
#2070000
0&
#2080000
b0 x
b0 w
b0 l
0U
0R
0S
1$
1K
b0 P
b0 ?"
b0 O
b0 X
b0 a
b0 I
b0 V
b0 W
b1000 Z"
1#
1&
#2090000
0&
#2100000
b1001 Z"
1&
#2110000
0&
#2120000
b1010 Z"
1&
#2130000
0&
#2140000
b1011 Z"
1&
#2150000
0&
#2160000
b1100 Z"
1&
#2170000
0&
#2180000
b1101 Z"
1&
#2190000
0&
#2200000
b1110 Z"
1&
#2210000
0&
#2220000
b1111 Z"
1&
#2230000
0&
#2240000
b1000 Z"
0#
1&
#2250000
0&
0'
#2260000
b1001 Z"
1&
#2270000
0&
#2280000
b1010 Z"
1&
#2290000
0&
#2300000
b1011 Z"
1&
#2310000
0&
#2320000
b1100 Z"
1&
#2330000
0&
#2340000
b1101 Z"
1&
#2350000
0&
#2360000
b1110 Z"
1&
#2370000
0&
#2380000
b1111 Z"
1&
#2390000
0&
#2400000
0$
0K
b1000 Z"
1#
1&
#2410000
0&
#2420000
b1001 Z"
1&
#2430000
0&
#2440000
b1010 Z"
1&
#2450000
0&
#2460000
b1011 Z"
1&
#2470000
0&
#2480000
b1100 Z"
1&
#2490000
0&
#2500000
b1101 Z"
1U
1&
1'
#2510000
0&
#2520000
b1 P
b1 ?"
b1 O
b1 X
b1 x
b1 I
b1 V
b1 W
b1110 Z"
1&
#2530000
0&
#2540000
b10 P
b10 ?"
b10 O
b10 X
b1 w
b11 I
b11 V
b11 W
b1111 Z"
1&
#2550000
0&
#2560000
b11 P
b11 ?"
b11 O
b11 X
b1 l
b111 I
b111 V
b111 W
b1000 Z"
0#
1&
#2570000
0&
#2580000
b100 P
b100 ?"
b100 O
b100 X
b1 a
b1111 I
b1111 V
b1111 W
b1001 Z"
1&
#2590000
0&
#2600000
b101 P
b101 ?"
b101 O
b101 X
b1 ^
b11111 I
b11111 V
b11111 W
b1010 Z"
1&
#2610000
0&
#2620000
b110 P
b110 ?"
b110 O
b110 X
b1 ]
b111111 I
b111111 V
b111111 W
b1011 Z"
1&
#2630000
0&
#2640000
b111 P
b111 ?"
b111 O
b111 X
b1 \
b1111111 I
b1111111 V
b1111111 W
b1100 Z"
1&
#2650000
0&
#2660000
b1000 P
b1000 ?"
b1000 O
b1000 X
b1 [
b11111111 I
b11111111 V
b11111111 W
b1101 Z"
1&
#2670000
0&
#2680000
b1001 P
b1001 ?"
b1001 O
b1001 X
b1 Z
b111111111 I
b111111111 V
b111111111 W
b1110 Z"
1&
#2690000
0&
#2700000
b1010 P
b1010 ?"
b1010 O
b1010 X
b1 Y
b1111111111 I
b1111111111 V
b1111111111 W
b1111 Z"
1&
#2710000
0&
#2720000
b0 x
b0 w
b0 l
b0 a
b0 ^
b0 ]
b0 \
b0 [
b0 Z
b0 Y
0U
0R
0S
1$
1K
b0 P
b0 ?"
b0 O
b0 X
b0 v
b0 I
b0 V
b0 W
b1000 Z"
1#
1&
#2730000
0&
#2740000
b1001 Z"
1&
#2750000
0&
0'
#2760000
b1010 Z"
1&
#2770000
0&
#2780000
b1011 Z"
1&
#2790000
0&
#2800000
b1100 Z"
1&
#2810000
0&
#2820000
b1101 Z"
1&
#2830000
0&
#2840000
b1110 Z"
1&
#2850000
0&
#2860000
b1111 Z"
1&
#2870000
0&
#2880000
b1000 Z"
0#
1&
#2890000
0&
#2900000
b1001 Z"
1&
#2910000
0&
#2920000
b1010 Z"
1&
#2930000
0&
#2940000
b1011 Z"
1&
#2950000
0&
#2960000
b1100 Z"
1&
#2970000
0&
#2980000
b1101 Z"
1&
#2990000
0&
#3000000
b1110 Z"
1U
1&
1'
#3010000
0&
#3020000
b1 P
b1 ?"
b1 O
b1 X
b1 x
b1 I
b1 V
b1 W
b1111 Z"
1&
#3030000
0&
#3040000
0$
0K
b10 P
b10 ?"
b10 O
b10 X
b1 w
b11 I
b11 V
b11 W
b1000 Z"
1#
1&
#3050000
0&
#3060000
b11 P
b11 ?"
b11 O
b11 X
b1 l
b111 I
b111 V
b111 W
b1001 Z"
1&
#3070000
0&
#3080000
b100 P
b100 ?"
b100 O
b100 X
b1 a
b1111 I
b1111 V
b1111 W
b1010 Z"
1&
#3090000
0&
#3100000
b101 P
b101 ?"
b101 O
b101 X
b1 ^
b11111 I
b11111 V
b11111 W
b1011 Z"
1&
#3110000
0&
#3120000
b110 P
b110 ?"
b110 O
b110 X
b1 ]
b111111 I
b111111 V
b111111 W
b1100 Z"
1&
#3130000
0&
#3140000
b111 P
b111 ?"
b111 O
b111 X
b1 \
b1111111 I
b1111111 V
b1111111 W
b1101 Z"
1&
#3150000
0&
#3160000
b1000 P
b1000 ?"
b1000 O
b1000 X
b1 [
b11111111 I
b11111111 V
b11111111 W
b1110 Z"
1&
#3170000
0&
#3180000
b1001 P
b1001 ?"
b1001 O
b1001 X
b1 Z
b111111111 I
b111111111 V
b111111111 W
b1111 Z"
1&
#3190000
0&
#3200000
b1010 P
b1010 ?"
b1010 O
b1010 X
b1 Y
b1111111111 I
b1111111111 V
b1111111111 W
b1000 Z"
0#
1&
#3210000
0&
#3220000
b1011 P
b1011 ?"
b1011 O
b1011 X
b1 v
b11111111111 I
b11111111111 V
b11111111111 W
b1001 Z"
1&
#3230000
0&
#3240000
b1100 P
b1100 ?"
b1100 O
b1100 X
b1 u
b111111111111 I
b111111111111 V
b111111111111 W
b1010 Z"
1&
#3250000
0&
0'
#3260000
b1101 P
b1101 ?"
b1101 O
b1101 X
b1 t
b1111111111111 I
b1111111111111 V
b1111111111111 W
b1011 Z"
1&
#3270000
0&
#3280000
b1110 P
b1110 ?"
b1110 O
b1110 X
b1 s
b11111111111111 I
b11111111111111 V
b11111111111111 W
b1100 Z"
1&
#3290000
0&
#3300000
b1111 P
b1111 ?"
b1111 O
b1111 X
b1 r
b111111111111111 I
b111111111111111 V
b111111111111111 W
b1101 Z"
1&
#3310000
0&
#3320000
b10010 V"
b0 W"
b0 Y"
b0 %
b0 9
b11111 P"
b0 D
b0 R"
b0 8
b0 L
b0 C"
b0 N"
b1 6
b1 J
b1 B"
b1 H"
b1 M"
b0 O"
b11111 I"
b1 Q"
b1 K"
b1 @"
b1 L"
b1 A"
b1 F"
b10000 P
b10000 ?"
b10000 O
b10000 X
b1 q
b1111111111111111 I
b1111111111111111 V
b1111111111111111 W
b1110 Z"
1&
#3330000
0&
#3340000
b10001 P
b10001 ?"
b10001 O
b10001 X
b1 p
b11111111111111111 I
b11111111111111111 V
b11111111111111111 W
b1111 Z"
b10010 ["
1&
#3350000
0&
#3360000
b10010 P
b10010 ?"
b10010 O
b10010 X
b1 o
b111111111111111111 I
b111111111111111111 V
b111111111111111111 W
b10000 Z"
1&
#3370000
0&
#3380000
b10011 P
b10011 ?"
b10011 O
b10011 X
b1 n
b1111111111111111111 I
b1111111111111111111 V
b1111111111111111111 W
b10001 Z"
1&
#3390000
0&
#3400000
b10000 V"
b10 W"
b10 Y"
b10 %
b10 9
b11110 P"
b10 D
b10 R"
b10 8
b10 L
b10 C"
b10 N"
b10 6
b10 J
b10 B"
b10 H"
b10 M"
b11110 O"
b11110 I"
b0 Q"
b0 K"
b0 x
b0 w
b0 l
b0 a
b0 ^
b0 ]
b0 \
b0 [
b0 Z
b0 Y
b0 v
b0 u
b0 t
b0 s
b0 r
b0 @"
b0 L"
b0 A"
b0 F"
b0 q
b0 p
b0 o
b0 n
0U
0R
0S
1$
1K
b0 P
b0 ?"
b0 O
b0 X
b0 m
b0 I
b0 V
b0 W
b1000 Z"
1#
1&
#3410000
0&
#3420000
b1001 Z"
b10000 ["
1&
#3430000
0&
#3440000
b1010 Z"
1&
#3450000
0&
